\relax 
\providecommand\hyper@newdestlabel[2]{}
\providecommand*{\memsetcounter}[2]{}
\providecommand\babel@aux[2]{}
\@nameuse{bbl@beforestart}
\providecommand\HyperFirstAtBeginDocument{\AtBeginDocument}
\HyperFirstAtBeginDocument{\ifx\hyper@anchor\@undefined
\global\let\oldcontentsline\contentsline
\gdef\contentsline#1#2#3#4{\oldcontentsline{#1}{#2}{#3}}
\global\let\oldnewlabel\newlabel
\gdef\newlabel#1#2{\newlabelxx{#1}#2}
\gdef\newlabelxx#1#2#3#4#5#6{\oldnewlabel{#1}{{#2}{#3}}}
\AtEndDocument{\ifx\hyper@anchor\@undefined
\let\contentsline\oldcontentsline
\let\newlabel\oldnewlabel
\fi}
\fi}
\global\let\hyper@last\relax 
\gdef\HyperFirstAtBeginDocument#1{#1}
\providecommand*\HyPL@Entry[1]{}
\HyPL@Entry{0<</S/D>>}
\babel@aux{italian}{}
\babel@aux{italian}{}
\@writefile{toc}{\contentsline {section}{I blocchi del diagramma}{1}{section*.1}\protected@file@percent }
\@writefile{toc}{\contentsline {section}{Le variabili e la loro assegnazione}{3}{section*.2}\protected@file@percent }
\@writefile{toc}{\contentsline {section}{La relazione fra esecutore e utente}{3}{section*.3}\protected@file@percent }
\@writefile{toc}{\contentsline {section}{Esempio di progettazione di un algoritmo}{4}{section*.4}\protected@file@percent }
\@writefile{toc}{\contentsline {paragraph}{Fase di analisi}{4}{section*.5}\protected@file@percent }
\@writefile{toc}{\contentsline {paragraph}{Strategia risolutiva}{4}{section*.6}\protected@file@percent }
\@writefile{toc}{\contentsline {paragraph}{Algoritmo risolutivo: flowchart}{4}{section*.7}\protected@file@percent }
\memsetcounter{lastsheet}{5}
\memsetcounter{lastpage}{5}
\gdef \@abspage@last{5}
