\relax 
\providecommand*{\memsetcounter}[2]{}
\providecommand\babel@aux[2]{}
\@nameuse{bbl@beforestart}
\babel@aux{italian}{}
\babel@aux{italian}{}
\@writefile{toc}{\contentsline {paragraph}{Argomenti}{1}{}\protected@file@percent }
\@writefile{toc}{\contentsline {paragraph}{Competenze attese}{1}{}\protected@file@percent }
\@writefile{toc}{\contentsline {paragraph}{Esercizio proposto}{1}{}\protected@file@percent }
\@writefile{toc}{\contentsline {paragraph}{Svolgimento}{1}{}\protected@file@percent }
\@writefile{toc}{\contentsline {paragraph}{Geometria}{2}{}\protected@file@percent }
\@writefile{toc}{\contentsline {paragraph}{Valutazione}{2}{}\protected@file@percent }
\memsetcounter{lastsheet}{2}
\memsetcounter{lastpage}{2}
\gdef \@abspage@last{2}
