\relax 
\providecommand\hyper@newdestlabel[2]{}
\providecommand*{\memsetcounter}[2]{}
\providecommand\babel@aux[2]{}
\@nameuse{bbl@beforestart}
\providecommand\HyperFirstAtBeginDocument{\AtBeginDocument}
\HyperFirstAtBeginDocument{\ifx\hyper@anchor\@undefined
\global\let\oldcontentsline\contentsline
\gdef\contentsline#1#2#3#4{\oldcontentsline{#1}{#2}{#3}}
\global\let\oldnewlabel\newlabel
\gdef\newlabel#1#2{\newlabelxx{#1}#2}
\gdef\newlabelxx#1#2#3#4#5#6{\oldnewlabel{#1}{{#2}{#3}}}
\AtEndDocument{\ifx\hyper@anchor\@undefined
\let\contentsline\oldcontentsline
\let\newlabel\oldnewlabel
\fi}
\fi}
\global\let\hyper@last\relax 
\gdef\HyperFirstAtBeginDocument#1{#1}
\providecommand\HyField@AuxAddToFields[1]{}
\providecommand\HyField@AuxAddToCoFields[2]{}
\babel@aux{italian}{}
\babel@aux{italian}{}
\@writefile{toc}{\contentsline {chapter}{Indice}{1}{section*.1}\protected@file@percent }
\@writefile{lof}{\addvspace {10pt}}
\@writefile{lot}{\addvspace {10pt}}
\@writefile{toc}{\contentsline {chapter}{\chapternumberline {I}Classi seconde}{1}{chapter.1}\protected@file@percent }
\@writefile{toc}{\contentsline {section}{\numberline {I.1}Prodotto scalare}{1}{section.1.1}\protected@file@percent }
\@writefile{toc}{\contentsline {paragraph}{Modulo del vettore}{2}{section*.2}\protected@file@percent }
\@writefile{toc}{\contentsline {paragraph}{Ortogonalità}{2}{section*.3}\protected@file@percent }
\@writefile{toc}{\contentsline {paragraph}{Proiezione lungo i vettori ortonormali}{2}{section*.4}\protected@file@percent }
\@writefile{toc}{\contentsline {paragraph}{Proiezione lungo un vettore}{3}{section*.5}\protected@file@percent }
\@writefile{toc}{\contentsline {section}{\numberline {I.2}Esercizi sui vettori}{3}{section.1.2}\protected@file@percent }
\newlabel{eqn:add_cos}{{I.1}{3}{Esercizi sui vettori}{equation.1.2.1}{}}
\@writefile{lof}{\addvspace {10pt}}
\@writefile{lot}{\addvspace {10pt}}
\@writefile{toc}{\contentsline {chapter}{\chapternumberline {II}Classe terza}{7}{chapter.2}\protected@file@percent }
\@writefile{toc}{\contentsline {section}{\numberline {II.1}Richiami}{7}{section.2.1}\protected@file@percent }
\@writefile{toc}{\contentsline {section}{\numberline {II.2}Esercizi sulla conservazione dell'energia meccanica}{8}{section.2.2}\protected@file@percent }
\@writefile{lof}{\addvspace {10pt}}
\@writefile{lot}{\addvspace {10pt}}
\@writefile{toc}{\contentsline {chapter}{\chapternumberline {III}Classe quarta}{14}{chapter.3}\protected@file@percent }
\@writefile{toc}{\contentsline {section}{\numberline {III.1}Scale termometriche}{14}{section.3.1}\protected@file@percent }
\@writefile{toc}{\contentsline {section}{\numberline {III.2}Calore specifico e capacità termica}{15}{section.3.2}\protected@file@percent }
\@writefile{toc}{\contentsline {section}{\numberline {III.3}Esercizi su scale termometriche e calori specifici}{16}{section.3.3}\protected@file@percent }
\memsetcounter{lastsheet}{19}
\memsetcounter{lastpage}{19}
