\babel@toc {italian}{}
\babel@toc {italian}{}
\contentsline {chapter}{Indice}{1}{section*.1}%
\contentsline {chapter}{\chapternumberline {I}Classi seconde}{1}{chapter.1}%
\contentsline {section}{\numberline {I.1}Prodotto scalare}{1}{section.1.1}%
\contentsline {paragraph}{Modulo del vettore}{2}{section*.2}%
\contentsline {paragraph}{Ortogonalità}{2}{section*.3}%
\contentsline {paragraph}{Proiezione lungo i vettori ortonormali}{2}{section*.4}%
\contentsline {paragraph}{Proiezione lungo un vettore}{3}{section*.5}%
\contentsline {section}{\numberline {I.2}Esercizi sui vettori}{3}{section.1.2}%
\contentsline {chapter}{\chapternumberline {II}Classe terza}{7}{chapter.2}%
\contentsline {section}{\numberline {II.1}Richiami}{7}{section.2.1}%
\contentsline {section}{\numberline {II.2}Esercizi sulla conservazione dell'energia meccanica}{8}{section.2.2}%
\contentsline {chapter}{\chapternumberline {III}Classe quarta}{14}{chapter.3}%
\contentsline {section}{\numberline {III.1}Scale termometriche}{14}{section.3.1}%
\contentsline {section}{\numberline {III.2}Calore specifico e capacità termica}{15}{section.3.2}%
\contentsline {section}{\numberline {III.3}Esercizi su scale termometriche e calori specifici}{16}{section.3.3}%
