\relax 
\providecommand\hyper@newdestlabel[2]{}
\providecommand*{\memsetcounter}[2]{}
\providecommand\babel@aux[2]{}
\@nameuse{bbl@beforestart}
\providecommand\HyperFirstAtBeginDocument{\AtBeginDocument}
\HyperFirstAtBeginDocument{\ifx\hyper@anchor\@undefined
\global\let\oldcontentsline\contentsline
\gdef\contentsline#1#2#3#4{\oldcontentsline{#1}{#2}{#3}}
\global\let\oldnewlabel\newlabel
\gdef\newlabel#1#2{\newlabelxx{#1}#2}
\gdef\newlabelxx#1#2#3#4#5#6{\oldnewlabel{#1}{{#2}{#3}}}
\AtEndDocument{\ifx\hyper@anchor\@undefined
\let\contentsline\oldcontentsline
\let\newlabel\oldnewlabel
\fi}
\fi}
\global\let\hyper@last\relax 
\gdef\HyperFirstAtBeginDocument#1{#1}
\providecommand\HyField@AuxAddToFields[1]{}
\providecommand\HyField@AuxAddToCoFields[2]{}
\babel@aux{italian}{}
\babel@aux{italian}{}
\@writefile{toc}{\contentsline {chapter}{Indice}{1}{section*.1}\protected@file@percent }
\@writefile{lof}{\addvspace {10pt}}
\@writefile{lot}{\addvspace {10pt}}
\@writefile{toc}{\contentsline {chapter}{\chapternumberline {I}Vettori}{1}{chapter.1}\protected@file@percent }
\@writefile{toc}{\contentsline {section}{\numberline {I.1}Richiami}{1}{section.1.1}\protected@file@percent }
\@writefile{toc}{\contentsline {section}{\numberline {I.2}Componenti di un vettore}{2}{section.1.2}\protected@file@percent }
\@writefile{lof}{\contentsline {figure}{\numberline {I.1}{\ignorespaces Decomposizione di un vettore in componenti rispetto ad un sistema di vettori ortonormali}}{2}{figure.1.1}\protected@file@percent }
\@writefile{toc}{\contentsline {section}{\numberline {I.3}Somma di vettori}{4}{section.1.3}\protected@file@percent }
\@writefile{toc}{\contentsline {paragraph}{Somma con metodo geometrico}{4}{section*.2}\protected@file@percent }
\@writefile{lof}{\contentsline {figure}{\numberline {I.2}{\ignorespaces Somma di due vettori col metodo geometrico.}}{5}{figure.1.2}\protected@file@percent }
\@writefile{toc}{\contentsline {paragraph}{Somma con metodo algebrico}{5}{section*.3}\protected@file@percent }
\@writefile{lof}{\contentsline {figure}{\numberline {I.3}{\ignorespaces Somma di due vettori lungo la stessa direzione.}}{6}{figure.1.3}\protected@file@percent }
\@writefile{lof}{\contentsline {figure}{\numberline {I.4}{\ignorespaces Calcolo del risultate di tre vettori.}}{8}{figure.1.4}\protected@file@percent }
\memsetcounter{lastsheet}{9}
\memsetcounter{lastpage}{9}
