\babel@toc {italian}{}
\babel@toc {italian}{}
\contentsline {chapter}{Indice}{1}{section*.1}%
\contentsline {chapter}{\chapternumberline {I}Vettori}{1}{chapter.1}%
\contentsline {section}{\numberline {I.1}Richiami}{1}{section.1.1}%
\contentsline {section}{\numberline {I.2}Componenti di un vettore}{2}{section.1.2}%
\contentsline {section}{\numberline {I.3}Somma di vettori}{4}{section.1.3}%
\contentsline {paragraph}{Somma con metodo geometrico}{4}{section*.2}%
\contentsline {paragraph}{Somma con metodo algebrico}{5}{section*.3}%
