\relax 
\providecommand\hyper@newdestlabel[2]{}
\providecommand\HyperFirstAtBeginDocument{\AtBeginDocument}
\HyperFirstAtBeginDocument{\ifx\hyper@anchor\@undefined
\global\let\oldcontentsline\contentsline
\gdef\contentsline#1#2#3#4{\oldcontentsline{#1}{#2}{#3}}
\global\let\oldnewlabel\newlabel
\gdef\newlabel#1#2{\newlabelxx{#1}#2}
\gdef\newlabelxx#1#2#3#4#5#6{\oldnewlabel{#1}{{#2}{#3}}}
\AtEndDocument{\ifx\hyper@anchor\@undefined
\let\contentsline\oldcontentsline
\let\newlabel\oldnewlabel
\fi}
\fi}
\global\let\hyper@last\relax 
\gdef\HyperFirstAtBeginDocument#1{#1}
\providecommand*\HyPL@Entry[1]{}
\providecommand\babel@aux[2]{}
\@nameuse{bbl@beforestart}
\HyPL@Entry{0<</P(\376\377\0001)>>}
\babel@aux{italian}{}
\babel@aux{italian}{}
\@writefile{nav}{\headcommand {\slideentry {0}{0}{1}{1/1}{}{0}}}
\@writefile{nav}{\headcommand {\beamer@framepages {1}{1}}}
\HyPL@Entry{1<</P(\376\377\0002)>>}
\@writefile{nav}{\headcommand {\slideentry {0}{0}{2}{2/2}{}{0}}}
\@writefile{nav}{\headcommand {\beamer@framepages {2}{2}}}
\HyPL@Entry{2<</P(\376\377\0003)>>}
\@writefile{toc}{\beamer@sectionintoc {1}{Prima di partire...}{3}{0}{1}}
\@writefile{nav}{\headcommand {\beamer@sectionpages {1}{2}}}
\@writefile{nav}{\headcommand {\beamer@subsectionpages {1}{2}}}
\@writefile{nav}{\headcommand {\sectionentry {1}{Prima di partire...}{3}{Prima di partire...}{0}}}
\@writefile{nav}{\headcommand {\slideentry {1}{0}{1}{3/3}{}{0}}}
\@writefile{nav}{\headcommand {\beamer@framepages {3}{3}}}
\HyPL@Entry{3<</P(\376\377\0004)>>}
\@writefile{nav}{\headcommand {\slideentry {1}{0}{2}{4/4}{}{0}}}
\@writefile{nav}{\headcommand {\beamer@framepages {4}{4}}}
\HyPL@Entry{4<</P(\376\377\0005)>>}
\@writefile{toc}{\beamer@sectionintoc {2}{La programmazione informatica}{5}{0}{2}}
\@writefile{nav}{\headcommand {\beamer@sectionpages {3}{4}}}
\@writefile{nav}{\headcommand {\beamer@subsectionpages {3}{4}}}
\@writefile{nav}{\headcommand {\sectionentry {2}{La programmazione informatica}{5}{La programmazione informatica}{0}}}
\@writefile{toc}{\beamer@subsectionintoc {2}{1}{Cos'è un programma?}{5}{0}{2}}
\@writefile{nav}{\headcommand {\beamer@subsectionpages {5}{4}}}
\@writefile{nav}{\headcommand {\beamer@subsectionentry {0}{2}{1}{5}{Cos'è un programma?}}}
\@writefile{nav}{\headcommand {\slideentry {2}{1}{1}{5/5}{Cos'è un programma?}{0}}}
\@writefile{nav}{\headcommand {\beamer@framepages {5}{5}}}
\HyPL@Entry{5<</P(\376\377\0006)>>}
\@writefile{nav}{\headcommand {\slideentry {2}{1}{2}{6/6}{Cos'è un programma?}{0}}}
\@writefile{nav}{\headcommand {\beamer@framepages {6}{6}}}
\HyPL@Entry{6<</P(\376\377\0007)>>}
\@writefile{nav}{\headcommand {\slideentry {2}{1}{3}{7/7}{Cos'è un programma?}{0}}}
\@writefile{nav}{\headcommand {\beamer@framepages {7}{7}}}
\HyPL@Entry{7<</P(\376\377\0008)>>}
\@writefile{nav}{\headcommand {\slideentry {2}{1}{4}{8/8}{Cos'è un programma?}{0}}}
\@writefile{nav}{\headcommand {\beamer@framepages {8}{8}}}
\HyPL@Entry{8<</P(\376\377\0009)>>}
\@writefile{nav}{\headcommand {\slideentry {2}{1}{5}{9/9}{Cos'è un programma?}{0}}}
\@writefile{nav}{\headcommand {\beamer@framepages {9}{9}}}
\HyPL@Entry{9<</P(\376\377\0001\0000)>>}
\@writefile{toc}{\beamer@subsectionintoc {2}{2}{Come si risolve un problema?}{10}{0}{2}}
\@writefile{nav}{\headcommand {\beamer@subsectionpages {5}{9}}}
\@writefile{nav}{\headcommand {\beamer@subsectionentry {0}{2}{2}{10}{Come si risolve un problema?}}}
\@writefile{nav}{\headcommand {\slideentry {2}{2}{1}{10/10}{Come si risolve un problema?}{0}}}
\@writefile{nav}{\headcommand {\beamer@framepages {10}{10}}}
\HyPL@Entry{10<</P(\376\377\0001\0001)>>}
\@writefile{nav}{\headcommand {\slideentry {2}{2}{2}{11/11}{Come si risolve un problema?}{0}}}
\@writefile{nav}{\headcommand {\beamer@framepages {11}{11}}}
\HyPL@Entry{11<</P(\376\377\0001\0002)>>}
\@writefile{nav}{\headcommand {\slideentry {2}{2}{3}{12/12}{Come si risolve un problema?}{0}}}
\@writefile{nav}{\headcommand {\beamer@framepages {12}{12}}}
\HyPL@Entry{12<</P(\376\377\0001\0003)>>}
\@writefile{toc}{\beamer@sectionintoc {3}{Gli algoritmi}{13}{0}{3}}
\@writefile{nav}{\headcommand {\beamer@sectionpages {5}{12}}}
\@writefile{nav}{\headcommand {\beamer@subsectionpages {10}{12}}}
\@writefile{nav}{\headcommand {\sectionentry {3}{Gli algoritmi}{13}{Gli algoritmi}{0}}}
\@writefile{toc}{\beamer@subsectionintoc {3}{1}{Che cosa è un algoritmo?}{13}{0}{3}}
\@writefile{nav}{\headcommand {\beamer@subsectionpages {13}{12}}}
\@writefile{nav}{\headcommand {\beamer@subsectionentry {0}{3}{1}{13}{Che cosa è un algoritmo?}}}
\@writefile{nav}{\headcommand {\slideentry {3}{1}{1}{13/13}{Che cosa è un algoritmo?}{0}}}
\@writefile{nav}{\headcommand {\beamer@framepages {13}{13}}}
\HyPL@Entry{13<</P(\376\377\0001\0004)>>}
\@writefile{nav}{\headcommand {\slideentry {3}{1}{2}{14/14}{Che cosa è un algoritmo?}{0}}}
\@writefile{nav}{\headcommand {\beamer@framepages {14}{14}}}
\HyPL@Entry{14<</P(\376\377\0001\0005)>>}
\@writefile{toc}{\beamer@subsectionintoc {3}{2}{Quali caratteristiche deve avere un algoritmo?}{15}{0}{3}}
\@writefile{nav}{\headcommand {\beamer@subsectionpages {13}{14}}}
\@writefile{nav}{\headcommand {\beamer@subsectionentry {0}{3}{2}{15}{Quali caratteristiche deve avere un algoritmo?}}}
\@writefile{nav}{\headcommand {\slideentry {3}{2}{1}{15/15}{Quali caratteristiche deve avere un algoritmo?}{0}}}
\@writefile{nav}{\headcommand {\beamer@framepages {15}{15}}}
\HyPL@Entry{15<</P(\376\377\0001\0006)>>}
\@writefile{nav}{\headcommand {\slideentry {3}{2}{2}{16/16}{Quali caratteristiche deve avere un algoritmo?}{0}}}
\@writefile{nav}{\headcommand {\beamer@framepages {16}{16}}}
\HyPL@Entry{16<</P(\376\377\0001\0007)>>}
\@writefile{nav}{\headcommand {\slideentry {3}{2}{3}{17/17}{Quali caratteristiche deve avere un algoritmo?}{0}}}
\@writefile{nav}{\headcommand {\beamer@framepages {17}{17}}}
\HyPL@Entry{17<</P(\376\377\0001\0008)>>}
\@writefile{nav}{\headcommand {\slideentry {3}{2}{4}{18/18}{Quali caratteristiche deve avere un algoritmo?}{0}}}
\@writefile{nav}{\headcommand {\beamer@framepages {18}{18}}}
\HyPL@Entry{18<</P(\376\377\0001\0009)>>}
\@writefile{nav}{\headcommand {\slideentry {3}{2}{5}{19/19}{Quali caratteristiche deve avere un algoritmo?}{0}}}
\@writefile{nav}{\headcommand {\beamer@framepages {19}{19}}}
\HyPL@Entry{19<</P(\376\377\0002\0000)>>}
\@writefile{toc}{\beamer@subsectionintoc {3}{3}{Come si descrive un algoritmo?}{20}{0}{3}}
\@writefile{nav}{\headcommand {\beamer@subsectionpages {15}{19}}}
\@writefile{nav}{\headcommand {\beamer@subsectionentry {0}{3}{3}{20}{Come si descrive un algoritmo?}}}
\@writefile{nav}{\headcommand {\slideentry {3}{3}{1}{20/20}{Come si descrive un algoritmo?}{0}}}
\@writefile{nav}{\headcommand {\beamer@framepages {20}{20}}}
\@writefile{nav}{\headcommand {\beamer@partpages {1}{20}}}
\@writefile{nav}{\headcommand {\beamer@subsectionpages {20}{20}}}
\@writefile{nav}{\headcommand {\beamer@sectionpages {13}{20}}}
\@writefile{nav}{\headcommand {\beamer@documentpages {20}}}
\@writefile{nav}{\headcommand {\gdef \inserttotalframenumber {20}}}
\gdef \@abspage@last{20}
