\relax 
\providecommand\hyper@newdestlabel[2]{}
\providecommand*{\memsetcounter}[2]{}
\providecommand\babel@aux[2]{}
\@nameuse{bbl@beforestart}
\providecommand\HyperFirstAtBeginDocument{\AtBeginDocument}
\HyperFirstAtBeginDocument{\ifx\hyper@anchor\@undefined
\global\let\oldcontentsline\contentsline
\gdef\contentsline#1#2#3#4{\oldcontentsline{#1}{#2}{#3}}
\global\let\oldnewlabel\newlabel
\gdef\newlabel#1#2{\newlabelxx{#1}#2}
\gdef\newlabelxx#1#2#3#4#5#6{\oldnewlabel{#1}{{#2}{#3}}}
\AtEndDocument{\ifx\hyper@anchor\@undefined
\let\contentsline\oldcontentsline
\let\newlabel\oldnewlabel
\fi}
\fi}
\global\let\hyper@last\relax 
\gdef\HyperFirstAtBeginDocument#1{#1}
\providecommand\HyField@AuxAddToFields[1]{}
\providecommand\HyField@AuxAddToCoFields[2]{}
\babel@aux{italian}{}
\babel@aux{italian}{}
\babel@aux{italian}{}
\@writefile{toc}{\contentsline {section}{\numberline {0.1}Esercizi svolti in classe}{1}{section.0.1}\protected@file@percent }
\@writefile{lof}{\contentsline {figure}{\numberline {0.1}{\ignorespaces Configurazione di cariche elettriche e campi da esse generate al centro del quadrato.\relax }}{2}{figure.caption.1}\protected@file@percent }
\providecommand*\caption@xref[2]{\@setref\relax\@undefined{#1}}
\newlabel{img:quad}{{\M@TitleReference {0.1}{Configurazione di cariche elettriche e campi da esse generate al centro del quadrato.\relax }}{2}{Configurazione di cariche elettriche e campi da esse generate al centro del quadrato.\relax }{figure.caption.1}{}}
\newlabel{img:corpo1}{{\M@TitleReference {0.2a}{Diagramma di corpo libero della carica $q$, avendo supposto $q>0$.\relax }}{3}{Diagramma di corpo libero della carica $q$, avendo supposto $q>0$.\relax }{figure.caption.2}{}}
\newlabel{sub@img:corpo1}{{\M@TitleReference {a}{Diagramma di corpo libero della carica $q$, avendo supposto $q>0$.\relax }}{3}{Diagramma di corpo libero della carica $q$, avendo supposto $q>0$.\relax }{figure.caption.2}{}}
\newlabel{img:corpo1}{{\M@TitleReference {0.2b}{Diagramma di corpo libero della carica $q$, avendo supposto $q<0$.\relax }}{3}{Diagramma di corpo libero della carica $q$, avendo supposto $q<0$.\relax }{figure.caption.2}{}}
\newlabel{sub@img:corpo1}{{\M@TitleReference {b}{Diagramma di corpo libero della carica $q$, avendo supposto $q<0$.\relax }}{3}{Diagramma di corpo libero della carica $q$, avendo supposto $q<0$.\relax }{figure.caption.2}{}}
\@writefile{lof}{\contentsline {figure}{\numberline {0.2}{\ignorespaces Diagramma di corpo libero della carica $q$, per $q>0$ e $q<0$.\relax }}{3}{figure.caption.2}\protected@file@percent }
\newlabel{img:freebody}{{\M@TitleReference {0.2}{Diagramma di corpo libero della carica $q$, per $q>0$ e $q<0$.\relax }}{3}{Diagramma di corpo libero della carica $q$, per $q>0$ e $q<0$.\relax }{figure.caption.2}{}}
\newlabel{eqn:omega}{{1}{4}{}{equation.0.1.1}{}}
\@writefile{toc}{\contentsline {section}{\numberline {0.2}Quesiti a risposta multipla}{5}{section.0.2}\protected@file@percent }
\memsetcounter{lastsheet}{5}
\memsetcounter{lastpage}{5}
