\relax 
\providecommand\hyper@newdestlabel[2]{}
\providecommand*{\memsetcounter}[2]{}
\providecommand\babel@aux[2]{}
\@nameuse{bbl@beforestart}
\providecommand\HyperFirstAtBeginDocument{\AtBeginDocument}
\HyperFirstAtBeginDocument{\ifx\hyper@anchor\@undefined
\global\let\oldcontentsline\contentsline
\gdef\contentsline#1#2#3#4{\oldcontentsline{#1}{#2}{#3}}
\global\let\oldnewlabel\newlabel
\gdef\newlabel#1#2{\newlabelxx{#1}#2}
\gdef\newlabelxx#1#2#3#4#5#6{\oldnewlabel{#1}{{#2}{#3}}}
\AtEndDocument{\ifx\hyper@anchor\@undefined
\let\contentsline\oldcontentsline
\let\newlabel\oldnewlabel
\fi}
\fi}
\global\let\hyper@last\relax 
\gdef\HyperFirstAtBeginDocument#1{#1}
\providecommand\HyField@AuxAddToFields[1]{}
\providecommand\HyField@AuxAddToCoFields[2]{}
\babel@aux{italian}{}
\babel@aux{italian}{}
\babel@aux{italian}{}
\@writefile{lof}{\contentsline {figure}{\numberline {1}{\ignorespaces Esempi di massimi, minimi e punti estremali.\relax }}{2}{figure.caption.1}\protected@file@percent }
\@writefile{lof}{\contentsline {figure}{\numberline {2}{\ignorespaces Relazione fra punti estremali e dominio della funzione.\relax }}{2}{figure.caption.2}\protected@file@percent }
\@writefile{toc}{\contentsline {section}{\numberline {1}Proprietà globali delle funzioni continue}{2}{section.0.1}\protected@file@percent }
\@writefile{lof}{\contentsline {figure}{\numberline {3}{\ignorespaces La funzione $f$ il cui grafico è rappresentato in figura non soddisfa le ipotesi del teorema di Bolzano sul dominio $[-3,3]$, le soddisfa invece la sua restrizione $f|_{[-2,2]}$: pertanto la restrizione si deve annullare in un punto dell'intervallo aperto $(-2,2)$, ed infatti si annulla in $x=0$.\relax }}{3}{figure.caption.3}\protected@file@percent }
\@writefile{toc}{\contentsline {section}{\numberline {2}Algoritmo dicotomico (o metodo di bisezione)}{4}{section.0.2}\protected@file@percent }
\@writefile{lof}{\contentsline {figure}{\numberline {4}{\ignorespaces Dai grafici delle funzioni $g$ e $h$ deduciamo che lo zero di $f$ si trova nell'intervallo $[0,1]$.\relax }}{7}{figure.caption.4}\protected@file@percent }
\@writefile{lof}{\contentsline {figure}{\numberline {5}{\ignorespaces Grafico della funzione $g$ dell'Esercizio~\ref  {exc:ivt}: $M=8\sqrt  {\frac  {70}{941+33\sqrt  {809}}}\textsf  {e}^{\frac  {1}{8} (\sqrt  {809}-39)},\tmspace  +\thinmuskip {.1667em}x_{12}=\pm \frac  12\sqrt  {\frac  12(39-\sqrt  {809})},\tmspace  +\thinmuskip {.1667em}m=-\frac  13$.\relax }}{7}{figure.caption.5}\protected@file@percent }
\providecommand*\caption@xref[2]{\@setref\relax\@undefined{#1}}
\newlabel{fig:ivt}{{\M@TitleReference {5}{Grafico della funzione $g$ dell'Esercizio~\ref  {exc:ivt}: $M=8\sqrt  {\frac  {70}{941+33\sqrt  {809}}}\textsf  {e}^{\frac  {1}{8} (\sqrt  {809}-39)},\tmspace  +\thinmuskip {.1667em}x_{12}=\pm \frac  12\sqrt  {\frac  12(39-\sqrt  {809})},\tmspace  +\thinmuskip {.1667em}m=-\frac  13$.\relax }}{7}{Grafico della funzione $g$ dell'Esercizio~\ref {exc:ivt}: $M=8\sqrt {\frac {70}{941+33\sqrt {809}}}\e ^{\frac {1}{8} (\sqrt {809}-39)},\,x_{12}=\pm \frac 12\sqrt {\frac 12(39-\sqrt {809})},\,m=-\frac 13$.\relax }{figure.caption.5}{}}
\newlabel{exc:ivt}{{\M@TitleReference {2}{Algoritmo dicotomico (o metodo di bisezione)}}{8}{per casa}{exc.2}{}}
\memsetcounter{lastsheet}{8}
\memsetcounter{lastpage}{8}
