\babel@toc {italian}{}
\babel@toc {italian}{}
\babel@toc {italian}{}
\contentsline {chapter}{Indice}{1}{section*.1}%
\contentsline {chapter}{\chapternumberline {I}Classi seconde}{1}{chapter.1}%
\contentsline {section}{\numberline {I.1}Algebra}{5}{section.1.1}%
