\relax 
\providecommand\hyper@newdestlabel[2]{}
\providecommand*{\memsetcounter}[2]{}
\providecommand\babel@aux[2]{}
\@nameuse{bbl@beforestart}
\providecommand\HyperFirstAtBeginDocument{\AtBeginDocument}
\HyperFirstAtBeginDocument{\ifx\hyper@anchor\@undefined
\global\let\oldcontentsline\contentsline
\gdef\contentsline#1#2#3#4{\oldcontentsline{#1}{#2}{#3}}
\global\let\oldnewlabel\newlabel
\gdef\newlabel#1#2{\newlabelxx{#1}#2}
\gdef\newlabelxx#1#2#3#4#5#6{\oldnewlabel{#1}{{#2}{#3}}}
\AtEndDocument{\ifx\hyper@anchor\@undefined
\let\contentsline\oldcontentsline
\let\newlabel\oldnewlabel
\fi}
\fi}
\global\let\hyper@last\relax 
\gdef\HyperFirstAtBeginDocument#1{#1}
\providecommand\HyField@AuxAddToFields[1]{}
\providecommand\HyField@AuxAddToCoFields[2]{}
\babel@aux{italian}{}
\babel@aux{italian}{}
\babel@aux{italian}{}
\@writefile{toc}{\contentsline {chapter}{Indice}{1}{section*.1}\protected@file@percent }
\@writefile{lof}{\addvspace {10pt}}
\@writefile{lot}{\addvspace {10pt}}
\@writefile{toc}{\contentsline {chapter}{\chapternumberline {I}Classi seconde}{1}{chapter.1}\protected@file@percent }
\newlabel{thm:inscr_angle}{{\M@TitleReference {I.1}{Classi seconde}}{2}{Teorema dell'angolo inscritto}{thm.1.1}{}}
\newlabel{cor:inscr_angle1}{{\M@TitleReference {I.1}{Classi seconde}}{3}{}{cor.1.1}{}}
\@writefile{lof}{\contentsline {figure}{\numberline {I.2}{\ignorespaces Esercizio~\ref  {exc:es1}\relax }}{5}{figure.caption.3}\protected@file@percent }
\newlabel{exc:es1}{{\M@TitleReference {I.5}{Classi seconde}}{5}{}{exc.1.5}{}}
\@writefile{toc}{\contentsline {section}{\numberline {I.1}Algebra}{5}{section.1.1}\protected@file@percent }
\memsetcounter{lastsheet}{8}
\memsetcounter{lastpage}{8}
