\BOOKMARK [2][]{Outline0.1}{\376\377\000P\000r\000i\000m\000a\000\040\000d\000i\000\040\000p\000a\000r\000t\000i\000r\000e\000.\000.\000.}{}% 1
\BOOKMARK [2][]{Outline0.2}{\376\377\000R\000i\000p\000r\000e\000n\000d\000i\000a\000m\000o\000\040\000l\000a\000\040\000l\000e\000z\000i\000o\000n\000e\000\040\000p\000r\000e\000c\000e\000d\000e\000n\000t\000e\000.\000.\000.}{}% 2
\BOOKMARK [3][]{Outline0.2.1.5}{\376\377\000Q\000u\000a\000l\000i\000\040\000c\000a\000r\000a\000t\000t\000e\000r\000i\000s\000t\000i\000c\000h\000e\000\040\000d\000e\000v\000e\000\040\000a\000v\000e\000r\000e\000\040\000u\000n\000\040\000a\000l\000g\000o\000r\000i\000t\000m\000o\000?}{Outline0.2}% 3
\BOOKMARK [3][]{Outline0.2.2.10}{\376\377\000C\000o\000m\000e\000\040\000s\000i\000\040\000d\000e\000s\000c\000r\000i\000v\000e\000\040\000u\000n\000\040\000a\000l\000g\000o\000r\000i\000t\000m\000o\000?}{Outline0.2}% 4
\BOOKMARK [2][]{Outline0.3}{\376\377\000L\000i\000n\000g\000u\000a\000g\000g\000i\000\040\000i\000n\000f\000o\000r\000m\000a\000t\000i\000c\000i}{}% 5
\BOOKMARK [3][]{Outline0.3.1.11}{\376\377\000C\000h\000e\000\040\000l\000i\000n\000g\000u\000a\000\040\000p\000a\000r\000l\000a\000n\000o\000\040\000l\000e\000\040\000m\000a\000c\000c\000h\000i\000n\000e\000?}{Outline0.3}% 6
\BOOKMARK [3][]{Outline0.3.2.13}{\376\377\000C\000o\000m\000u\000n\000i\000c\000a\000r\000e\000\040\000i\000s\000t\000r\000u\000z\000i\000o\000n\000i\000\040\000i\000n\000\040\000m\000o\000d\000o\000\040\000p\000i\000\371\000\040\000u\000m\000a\000n\000o}{Outline0.3}% 7
\BOOKMARK [3][]{Outline0.3.3.21}{\376\377\000L\000a\000\040\000t\000r\000a\000d\000u\000z\000i\000o\000n\000e\000\040\000d\000a\000i\000\040\000l\000i\000n\000g\000u\000a\000g\000g\000i\000\040\000s\000i\000m\000b\000o\000l\000i\000c\000i\000\040\000a\000\040\000q\000u\000e\000l\000l\000o\000\040\000d\000e\000l\000l\000a\000\040\000m\000a\000c\000c\000h\000i\000n\000a}{Outline0.3}% 8
