\relax 
\providecommand\hyper@newdestlabel[2]{}
\providecommand\HyperFirstAtBeginDocument{\AtBeginDocument}
\HyperFirstAtBeginDocument{\ifx\hyper@anchor\@undefined
\global\let\oldcontentsline\contentsline
\gdef\contentsline#1#2#3#4{\oldcontentsline{#1}{#2}{#3}}
\global\let\oldnewlabel\newlabel
\gdef\newlabel#1#2{\newlabelxx{#1}#2}
\gdef\newlabelxx#1#2#3#4#5#6{\oldnewlabel{#1}{{#2}{#3}}}
\AtEndDocument{\ifx\hyper@anchor\@undefined
\let\contentsline\oldcontentsline
\let\newlabel\oldnewlabel
\fi}
\fi}
\global\let\hyper@last\relax 
\gdef\HyperFirstAtBeginDocument#1{#1}
\providecommand*\HyPL@Entry[1]{}
\providecommand\babel@aux[2]{}
\@nameuse{bbl@beforestart}
\HyPL@Entry{0<</P(\376\377\0001)>>}
\babel@aux{italian}{}
\babel@aux{italian}{}
\@writefile{nav}{\headcommand {\slideentry {0}{0}{1}{1/1}{}{0}}}
\@writefile{nav}{\headcommand {\beamer@framepages {1}{1}}}
\HyPL@Entry{1<</P(\376\377\0002)>>}
\@writefile{nav}{\headcommand {\slideentry {0}{0}{2}{2/2}{}{0}}}
\@writefile{nav}{\headcommand {\beamer@framepages {2}{2}}}
\HyPL@Entry{2<</P(\376\377\0003)>>}
\@writefile{toc}{\beamer@sectionintoc {1}{Prima di partire...}{3}{0}{1}}
\@writefile{nav}{\headcommand {\beamer@sectionpages {1}{2}}}
\@writefile{nav}{\headcommand {\beamer@subsectionpages {1}{2}}}
\@writefile{nav}{\headcommand {\sectionentry {1}{Prima di partire...}{3}{Prima di partire...}{0}}}
\@writefile{nav}{\headcommand {\slideentry {1}{0}{1}{3/3}{}{0}}}
\@writefile{nav}{\headcommand {\beamer@framepages {3}{3}}}
\HyPL@Entry{3<</P(\376\377\0004)>>}
\@writefile{nav}{\headcommand {\slideentry {1}{0}{2}{4/4}{}{0}}}
\@writefile{nav}{\headcommand {\beamer@framepages {4}{4}}}
\HyPL@Entry{4<</P(\376\377\0005)>>}
\@writefile{toc}{\beamer@sectionintoc {2}{Riprendiamo la lezione precedente...}{5}{0}{2}}
\@writefile{nav}{\headcommand {\beamer@sectionpages {3}{4}}}
\@writefile{nav}{\headcommand {\beamer@subsectionpages {3}{4}}}
\@writefile{nav}{\headcommand {\sectionentry {2}{Riprendiamo la lezione precedente...}{5}{Riprendiamo la lezione precedente...}{0}}}
\@writefile{toc}{\beamer@subsectionintoc {2}{1}{Quali caratteristiche deve avere un algoritmo?}{5}{0}{2}}
\@writefile{nav}{\headcommand {\beamer@subsectionpages {5}{4}}}
\@writefile{nav}{\headcommand {\beamer@subsectionentry {0}{2}{1}{5}{Quali caratteristiche deve avere un algoritmo?}}}
\@writefile{nav}{\headcommand {\slideentry {2}{1}{1}{5/5}{Quali caratteristiche deve avere un algoritmo?}{0}}}
\@writefile{nav}{\headcommand {\beamer@framepages {5}{5}}}
\HyPL@Entry{5<</P(\376\377\0006)>>}
\@writefile{nav}{\headcommand {\slideentry {2}{1}{2}{6/6}{Quali caratteristiche deve avere un algoritmo?}{0}}}
\@writefile{nav}{\headcommand {\beamer@framepages {6}{6}}}
\HyPL@Entry{6<</P(\376\377\0007)>>}
\@writefile{nav}{\headcommand {\slideentry {2}{1}{3}{7/7}{Quali caratteristiche deve avere un algoritmo?}{0}}}
\@writefile{nav}{\headcommand {\beamer@framepages {7}{7}}}
\HyPL@Entry{7<</P(\376\377\0008)>>}
\@writefile{nav}{\headcommand {\slideentry {2}{1}{4}{8/8}{Quali caratteristiche deve avere un algoritmo?}{0}}}
\@writefile{nav}{\headcommand {\beamer@framepages {8}{8}}}
\HyPL@Entry{8<</P(\376\377\0009)>>}
\@writefile{nav}{\headcommand {\slideentry {2}{1}{5}{9/9}{Quali caratteristiche deve avere un algoritmo?}{0}}}
\@writefile{nav}{\headcommand {\beamer@framepages {9}{9}}}
\HyPL@Entry{9<</P(\376\377\0001\0000)>>}
\@writefile{toc}{\beamer@subsectionintoc {2}{2}{Come si descrive un algoritmo?}{10}{0}{2}}
\@writefile{nav}{\headcommand {\beamer@subsectionpages {5}{9}}}
\@writefile{nav}{\headcommand {\beamer@subsectionentry {0}{2}{2}{10}{Come si descrive un algoritmo?}}}
\@writefile{nav}{\headcommand {\slideentry {2}{2}{1}{10/10}{Come si descrive un algoritmo?}{0}}}
\@writefile{nav}{\headcommand {\beamer@framepages {10}{10}}}
\HyPL@Entry{10<</P(\376\377\0001\0001)>>}
\@writefile{toc}{\beamer@sectionintoc {3}{Linguaggi informatici}{11}{0}{3}}
\@writefile{nav}{\headcommand {\beamer@sectionpages {5}{10}}}
\@writefile{nav}{\headcommand {\beamer@subsectionpages {10}{10}}}
\@writefile{nav}{\headcommand {\sectionentry {3}{Linguaggi informatici}{11}{Linguaggi informatici}{0}}}
\@writefile{toc}{\beamer@subsectionintoc {3}{1}{Che lingua parlano le macchine?}{11}{0}{3}}
\@writefile{nav}{\headcommand {\beamer@subsectionpages {11}{10}}}
\@writefile{nav}{\headcommand {\beamer@subsectionentry {0}{3}{1}{11}{Che lingua parlano le macchine?}}}
\@writefile{nav}{\headcommand {\slideentry {3}{1}{1}{11/11}{Che lingua parlano le macchine?}{0}}}
\@writefile{nav}{\headcommand {\beamer@framepages {11}{11}}}
\HyPL@Entry{11<</P(\376\377\0001\0002)>>}
\@writefile{nav}{\headcommand {\slideentry {3}{1}{2}{12/12}{Che lingua parlano le macchine?}{0}}}
\@writefile{nav}{\headcommand {\beamer@framepages {12}{12}}}
\HyPL@Entry{12<</P(\376\377\0001\0003)>>}
\@writefile{toc}{\beamer@subsectionintoc {3}{2}{Comunicare istruzioni in modo più umano}{13}{0}{3}}
\@writefile{nav}{\headcommand {\beamer@subsectionpages {11}{12}}}
\@writefile{nav}{\headcommand {\beamer@subsectionentry {0}{3}{2}{13}{Comunicare istruzioni in modo più umano}}}
\@writefile{nav}{\headcommand {\slideentry {3}{2}{1}{13/13}{Comunicare istruzioni in modo più umano}{0}}}
\@writefile{nav}{\headcommand {\beamer@framepages {13}{13}}}
\HyPL@Entry{13<</P(\376\377\0001\0004)>>}
\@writefile{nav}{\headcommand {\slideentry {3}{2}{2}{14/14}{Comunicare istruzioni in modo più umano}{0}}}
\@writefile{nav}{\headcommand {\beamer@framepages {14}{14}}}
\HyPL@Entry{14<</P(\376\377\0001\0005)>>}
\@writefile{nav}{\headcommand {\slideentry {3}{2}{3}{15/15}{Comunicare istruzioni in modo più umano}{0}}}
\@writefile{nav}{\headcommand {\beamer@framepages {15}{15}}}
\HyPL@Entry{15<</P(\376\377\0001\0006)>>}
\@writefile{nav}{\headcommand {\slideentry {3}{2}{4}{16/16}{Comunicare istruzioni in modo più umano}{0}}}
\@writefile{nav}{\headcommand {\beamer@framepages {16}{16}}}
\HyPL@Entry{16<</P(\376\377\0001\0007)>>}
\@writefile{nav}{\headcommand {\slideentry {3}{2}{5}{17/17}{Comunicare istruzioni in modo più umano}{0}}}
\@writefile{nav}{\headcommand {\beamer@framepages {17}{17}}}
\HyPL@Entry{17<</P(\376\377\0001\0008)>>}
\@writefile{nav}{\headcommand {\slideentry {3}{2}{6}{18/18}{Comunicare istruzioni in modo più umano}{0}}}
\@writefile{nav}{\headcommand {\beamer@framepages {18}{18}}}
\HyPL@Entry{18<</P(\376\377\0001\0009)>>}
\@writefile{nav}{\headcommand {\slideentry {3}{2}{7}{19/19}{Comunicare istruzioni in modo più umano}{0}}}
\@writefile{nav}{\headcommand {\beamer@framepages {19}{19}}}
\HyPL@Entry{19<</P(\376\377\0002\0000)>>}
\@writefile{nav}{\headcommand {\slideentry {3}{2}{8}{20/20}{Comunicare istruzioni in modo più umano}{0}}}
\@writefile{nav}{\headcommand {\beamer@framepages {20}{20}}}
\HyPL@Entry{20<</P(\376\377\0002\0001)>>}
\@writefile{toc}{\beamer@subsectionintoc {3}{3}{La traduzione dai linguaggi simbolici a quello della macchina}{21}{0}{3}}
\@writefile{nav}{\headcommand {\beamer@subsectionpages {13}{20}}}
\@writefile{nav}{\headcommand {\beamer@subsectionentry {0}{3}{3}{21}{La traduzione dai linguaggi simbolici a quello della macchina}}}
\@writefile{nav}{\headcommand {\slideentry {3}{3}{1}{21/21}{La traduzione dai linguaggi simbolici a quello della macchina}{0}}}
\@writefile{nav}{\headcommand {\beamer@framepages {21}{21}}}
\HyPL@Entry{21<</P(\376\377\0002\0002)>>}
\@writefile{nav}{\headcommand {\slideentry {3}{3}{2}{22/22}{La traduzione dai linguaggi simbolici a quello della macchina}{0}}}
\@writefile{nav}{\headcommand {\beamer@framepages {22}{22}}}
\HyPL@Entry{22<</P(\376\377\0002\0003)>>}
\@writefile{nav}{\headcommand {\slideentry {3}{3}{3}{23/23}{La traduzione dai linguaggi simbolici a quello della macchina}{0}}}
\@writefile{nav}{\headcommand {\beamer@framepages {23}{23}}}
\@writefile{nav}{\headcommand {\beamer@partpages {1}{23}}}
\@writefile{nav}{\headcommand {\beamer@subsectionpages {21}{23}}}
\@writefile{nav}{\headcommand {\beamer@sectionpages {11}{23}}}
\@writefile{nav}{\headcommand {\beamer@documentpages {23}}}
\@writefile{nav}{\headcommand {\gdef \inserttotalframenumber {23}}}
\gdef \@abspage@last{23}
